{
  ".svelte-kit/build/index.js": {
    "file": "index.js",
    "src": ".svelte-kit/build/index.js",
    "isEntry": true,
    "imports": [
      "_index.js",
      "_index2.js"
    ],
    "dynamicImports": [
      ".svelte-kit/build/hooks.js"
    ]
  },
  "src/routes/+layout.svelte": {
    "file": "entries/pages/_layout.svelte.js",
    "src": "src/routes/+layout.svelte",
    "isEntry": true,
    "imports": [
      "_index.js"
    ]
  },
  "node_modules/@sveltejs/kit/src/runtime/components/error.svelte": {
    "file": "entries/fallbacks/error.svelte.js",
    "src": "node_modules/@sveltejs/kit/src/runtime/components/error.svelte",
    "isEntry": true,
    "imports": [
      "_index.js"
    ]
  },
  "src/routes/+page.svelte": {
    "file": "entries/pages/_page.svelte.js",
    "src": "src/routes/+page.svelte",
    "isEntry": true,
    "imports": [
      "_index.js",
      "_store.js"
    ]
  },
  "src/routes/play/+page.svelte": {
    "file": "entries/pages/play/_page.svelte.js",
    "src": "src/routes/play/+page.svelte",
    "isEntry": true,
    "imports": [
      "_index.js",
      "_store.js"
    ]
  },
  "_index.js": {
    "file": "chunks/index.js"
  },
  "_index2.js": {
    "file": "chunks/index2.js",
    "imports": [
      "_index.js"
    ]
  },
  "_store.js": {
    "file": "chunks/store.js",
    "imports": [
      "_index2.js"
    ]
  },
  ".svelte-kit/build/hooks.js": {
    "file": "chunks/hooks.js",
    "src": ".svelte-kit/build/hooks.js",
    "isDynamicEntry": true
  }
}